<?xml version="1.0" encoding="utf-8"?>
<!-- Generator: Adobe Illustrator 21.0.2, SVG Export Plug-In . SVG Version: 6.00 Build 0)  -->
<svg version="1.1" xmlns="http://www.w3.org/2000/svg" xmlns:xlink="http://www.w3.org/1999/xlink" x="0px" y="0px"
	 viewBox="0 0 250 250" style="enable-background:new 0 0 250 250;" xml:space="preserve">
<style type="text/css">
	.st0{fill:#2A2A2A;}
	.st1{fill:#F7F7F7;}
	.st2{fill:none;stroke:#F7F7F7;stroke-width:6;stroke-miterlimit:10;}
</style>
<g id="nj_x5F_contact">
</g>
<g id="nj_x5F_hero">
	<g id="background_1_">
		<circle class="st0" cx="125" cy="125" r="120"/>
	</g>
	<g id="shield">
		<path class="st1" d="M125,193.9c-38,0-69-30.9-69-69s30.9-69,69-69c38,0,69,30.9,69,69S163,193.9,125,193.9z M125,59.9
			c-35.9,0-65.1,29.2-65.1,65.1s29.2,65.1,65.1,65.1c35.9,0,65.1-29.2,65.1-65.1S160.9,59.9,125,59.9z"/>
		<polygon class="st1" points="125,58.6 139.5,103.5 186.7,103.5 148.5,131.2 163.1,176.1 125,148.3 86.8,176.1 101.4,131.2 
			63.2,103.5 110.4,103.5 		"/>
		<circle class="st2" cx="125" cy="125" r="100"/>
	</g>
</g>
<g id="nj_x5F_text">
</g>
</svg>
