<?xml version="1.0" encoding="utf-8"?>
<!-- Generator: Adobe Illustrator 21.0.2, SVG Export Plug-In . SVG Version: 6.00 Build 0)  -->
<svg version="1.1" xmlns="http://www.w3.org/2000/svg" xmlns:xlink="http://www.w3.org/1999/xlink" x="0px" y="0px"
	 viewBox="0 0 250 250" style="enable-background:new 0 0 250 250;" xml:space="preserve">
<style type="text/css">
	.st0{fill:#2A2A2A;}
	.st1{fill:#F7F7F7;}
</style>
<g id="nj_x5F_contact">
</g>
<g id="nj_x5F_hero">
</g>
<g id="nj_x5F_text">
	<g id="background_2_">
		<circle class="st0" cx="125" cy="125" r="120"/>
	</g>
	<g id="textlines">
		<path class="st1" d="M186.3,67.4H63.9c-2,0-3.7-1.7-3.7-3.7c0-2.1,1.7-3.7,3.7-3.7h122.4c2.1,0,3.7,1.7,3.7,3.7
			C190,65.7,188.3,67.4,186.3,67.4L186.3,67.4z M186.3,67.4"/>
		<path class="st1" d="M163,98.1H87.1c-2.1,0-3.7-1.7-3.7-3.7c0-2,1.7-3.7,3.7-3.7H163c2.1,0,3.7,1.7,3.7,3.7
			C166.8,96.4,165.1,98.1,163,98.1L163,98.1z M163,98.1"/>
		<path class="st1" d="M186.3,128.7H63.9c-2,0-3.7-1.6-3.7-3.7c0-2.1,1.7-3.7,3.7-3.7h122.4c2.1,0,3.7,1.7,3.7,3.7
			C190,127,188.3,128.7,186.3,128.7L186.3,128.7z M186.3,128.7"/>
		<path class="st1" d="M163,159.4H87.1c-2.1,0-3.7-1.7-3.7-3.7c0-2,1.7-3.7,3.7-3.7H163c2.1,0,3.7,1.6,3.7,3.7
			C166.8,157.7,165.1,159.4,163,159.4L163,159.4z M163,159.4"/>
		<path class="st1" d="M186.1,190H63.7c-2.1,0-3.7-1.7-3.7-3.7c0-2,1.7-3.7,3.7-3.7h122.4c2,0,3.7,1.6,3.7,3.7
			C189.8,188.3,188.1,190,186.1,190L186.1,190z M186.1,190"/>
	</g>
</g>
</svg>
